2.490171850585937534e+02
2.768710309982299833e+01
1.815649896621703974e+01
1.613079833030700527e+01
1.475010328292846751e+01
1.367982183456420842e+01
1.276213994979858413e+01
1.193192469596862715e+01
1.133443152427673262e+01
1.075835334777831953e+01
1.033361021041870131e+01
9.921255664825439524e+00
9.650825510025024201e+00
9.480414342880248313e+00
9.069182939529419230e+00
8.961327896118163494e+00
8.798615546226502104e+00
8.641901836395263103e+00
8.480349645614623455e+00
8.404198012351990599e+00
8.342530565261840891e+00
7.998949680328369283e+00
7.846691079139709757e+00
7.796572279930114924e+00
7.751608686447143626e+00
7.687756819725036550e+00
7.633672962188720490e+00
7.658777651786803808e+00
7.420072579383850453e+00
7.352513236999511648e+00
7.282067828178405478e+00
7.282423868179320969e+00
7.295252757072448802e+00
7.265598545074462677e+00
7.231110239028931019e+00
7.160881991386413681e+00
7.053669757843017862e+00
7.023572831153869878e+00
7.009704647064208594e+00
7.019689154624939142e+00
6.945034298896789693e+00
6.927891039848327992e+00
6.909977164268493510e+00
6.936808195114135600e+00
6.876632857322692693e+00
6.845328707695006898e+00
6.881000695228576269e+00
6.843886842727661346e+00
6.830794038772583399e+00
6.783335938453673997e+00
