3.791211490631103231e+01
3.134345230102539048e+01
3.157757495880126797e+01
1.605741256713867315e+01
1.459915405273437550e+01
2.185702951431274244e+01
1.315073047637939396e+01
1.351051782608032248e+01
1.157642543792724688e+01
1.114513610839843771e+01
1.089312873840331974e+01
1.069299890518188434e+01
1.084920635223388707e+01
1.020593053817749052e+01
1.017116252899169915e+01
9.212358970642089417e+00
9.442532253265380149e+00
9.002963275909424468e+00
1.066700677871704173e+01
8.854431552886962820e+00
8.989730691909789684e+00
8.809184846878052255e+00
8.957361087799071697e+00
9.637760334014892294e+00
8.733623323440552255e+00
8.636771469116210298e+00
8.990465784072876332e+00
8.992425804138184375e+00
9.141535396575926953e+00
8.336811342239379030e+00
8.380630970001220703e+00
8.326831378936766725e+00
8.176872844696044140e+00
8.540597810745239826e+00
8.149535379409790892e+00
8.116357555389404510e+00
9.549254131317137961e+00
8.185590791702271218e+00
8.175627689361572692e+00
7.819871006011962500e+00
7.885270748138427876e+00
8.443159646987915323e+00
7.991114873886107972e+00
7.750008068084716761e+00
7.802002630233764613e+00
7.751912460327148757e+00
7.757823915481567134e+00
7.771781692504882599e+00
7.796433753967285440e+00
7.737743463516235209e+00
